<?xml version="1.0" standalone="no"?>
<!DOCTYPE svg PUBLIC "-//W3C//DTD SVG 1.1//EN" "http://www.w3.org/Graphics/SVG/1.1/DTD/svg11.dtd" >
<svg xmlns="http://www.w3.org/2000/svg" xmlns:xlink="http://www.w3.org/1999/xlink" version="1.1">
<metadata>
Created by FontForge 20170731 at Tue Nov 30 18:17:24 2010
 By Aleksey,,,
Copyright (c) Mark Simonson, 2005. All rights reserved.
</metadata>
<defs>
<font id="ProximaNova-Light" horiz-adv-x="540" >
  <font-face 
    font-family="Proxima Nova Lt"
    font-weight="300"
    font-stretch="normal"
    units-per-em="1000"
    panose-1="2 0 5 6 3 0 0 2 0 4"
    ascent="790"
    descent="-210"
    x-height="483"
    cap-height="667"
    bbox="-97 -196 1060 867"
    underline-thickness="20"
    underline-position="-233"
    unicode-range="U+0020-2116"
  />
<missing-glyph horiz-adv-x="517" 
d="M434 -90h-351v842h351v-842zM402 -60v782h-288v-782h288z" />
    <glyph glyph-name=".notdef" horiz-adv-x="517" 
d="M434 -90h-351v842h351v-842zM402 -60v782h-288v-782h288z" />
    <glyph glyph-name=".null" horiz-adv-x="0" 
 />
    <glyph glyph-name="nonmarkingreturn" horiz-adv-x="333" 
 />
    <glyph glyph-name="CR" horiz-adv-x="0" 
 />
    <glyph glyph-name="space" unicode=" " horiz-adv-x="259" 
 />
    <glyph glyph-name="afii10023" unicode="&#x401;" horiz-adv-x="564" 
d="M434 768q0 -15 -11 -26t-26 -11t-26 11t-11 26t11 26t26 11t26 -11t11 -26zM230 768q0 -15 -11 -26t-26 -11t-26 11t-11 26t11 26t26 11t26 -11t11 -26zM506 0h-423v667h423v-52h-366v-247h359v-52h-359v-264h366v-52z" />
    <glyph glyph-name="afii10051" unicode="&#x402;" horiz-adv-x="773" 
d="M499 -12v52q68 0 107.5 44t39.5 121v6q0 86 -43.5 130t-127.5 44q-82 0 -164 -21v-364h-58v615h-218v52h494v-52h-218v-200q86 22 167 22q111 0 168.5 -61t57.5 -165v-6q0 -108 -58 -162.5t-147 -54.5z" />
    <glyph glyph-name="afii10052" unicode="&#x403;" horiz-adv-x="542" 
d="M451 867l-172 -144h-44l154 144h62zM140 0h-57v667h423v-52h-366v-615z" />
    <glyph glyph-name="afii10053" unicode="&#x404;" horiz-adv-x="672" 
d="M396 -12q-144 0 -241 96.5t-97 248.5t97 248.5t241 96.5q148 0 243 -118l-48 -31q-32 44 -84 70.5t-111 26.5q-110 0 -187.5 -71.5t-88.5 -186.5h374v-52h-376q6 -121 84.5 -198.5t193.5 -77.5q59 0 111 26.5t84 70.5l48 -30q-96 -119 -243 -119z" />
    <glyph glyph-name="afii10054" unicode="&#x405;" horiz-adv-x="581" 
d="M290 -12q-157 0 -244 106l37 43q83 -97 208 -97q93 0 134.5 40.5t41.5 92.5q0 40 -22 67.5t-57.5 42.5t-78 27t-85 25.5t-78 32t-57.5 52t-22 80.5q0 80 63 129t156 49q143 0 226 -94l-38 -42q-70 84 -191 84q-67 0 -111.5 -34.5t-44.5 -88.5q0 -34 22 -58.5t57.5 -38
t78 -25t85 -26t78 -34.5t57.5 -56.5t22 -87.5q0 -76 -57 -132.5t-180 -56.5z" />
    <glyph glyph-name="afii10055" unicode="&#x406;" horiz-adv-x="223" 
d="M140 0h-57v667h57v-667z" />
    <glyph glyph-name="afii10056" unicode="&#x407;" horiz-adv-x="223" 
d="M140 0h-57v667h57v-667zM251 768q0 -15 -11 -26t-26 -11t-26 11t-11 26t11 26t26 11t26 -11t11 -26zM47 768q0 -15 -11 -26t-26 -11t-26 11t-11 26t11 26t26 11t26 -11t11 -26z" />
    <glyph glyph-name="afii10057" unicode="&#x408;" horiz-adv-x="470" 
d="M185 -12q-108 0 -171 82l35 43q56 -73 133 -73q67 0 107 42.5t40 110.5v474h58v-474q0 -100 -57 -152.5t-145 -52.5z" />
    <glyph glyph-name="afii10058" unicode="&#x409;" horiz-adv-x="1051" 
d="M35 -12v52q46 0 75 22.5t53 89t40 186.5l43 329h375v-277h192q92 0 147 -56.5t55 -138.5t-54.5 -138.5t-147.5 -56.5h-250v615h-266l-36 -282q-11 -88 -28 -150.5t-36 -100t-46 -59t-53.5 -28.5t-62.5 -7zM807 338h-186v-286h186q66 0 106.5 40t40.5 103t-40.5 103
t-106.5 40z" />
    <glyph glyph-name="afii10059" unicode="&#x40a;" horiz-adv-x="1051" 
d="M83 0v667h57v-298h423v298h58v-298h203q87 0 139 -53.5t52 -131.5t-51.5 -131t-139.5 -53h-261v317h-423v-317h-57zM621 52h198q60 0 97.5 37t37.5 95q0 59 -37.5 96t-97.5 37h-198v-265z" />
    <glyph glyph-name="afii10060" unicode="&#x40b;" horiz-adv-x="781" 
d="M646 0v218q0 81 -44 124t-127 43q-82 0 -164 -21v-364h-58v615h-218v52h494v-52h-218v-200q86 22 167 22q111 0 168.5 -59.5t57.5 -159.5v-218h-58z" />
    <glyph glyph-name="afii10061" unicode="&#x40c;" horiz-adv-x="586" 
d="M459 867l-172 -144h-44l154 144h62zM562 0h-73l-275 314l-74 -81v-233h-57v667h57v-365l322 365h73l-284 -318z" />
    <glyph glyph-name="afii10062" unicode="&#x40e;" horiz-adv-x="618" 
d="M141 -12q-83 0 -126 59l31 43q40 -50 93 -50q37 0 60 21t54 79l23 43l-261 484h66l228 -431l228 431h66l-300 -554q-35 -65 -70 -95t-92 -30zM485 796q-65 -88 -175 -88q-109 0 -176 88l29 25q54 -75 147 -75q92 0 147 75z" />
    <glyph glyph-name="afii10145" unicode="&#x40f;" horiz-adv-x="703" 
d="M83 0v667h57v-615h423v615h58v-667h-240v-127h-58v127h-240z" />
    <glyph glyph-name="afii10017" unicode="&#x410;" horiz-adv-x="647" 
d="M632 0h-66l-66 164h-353l-66 -164h-66l273 667h71zM481 216l-158 390l-157 -390h315z" />
    <glyph glyph-name="afii10018" unicode="&#x411;" horiz-adv-x="571" 
d="M83 667h416v-52h-359v-225h193q92 0 146.5 -56.5t54.5 -138.5t-54 -138.5t-147 -56.5h-250v667zM327 338h-187v-286h187q66 0 106.5 40t40.5 103t-40.5 103t-106.5 40z" />
    <glyph glyph-name="afii10019" unicode="&#x412;" horiz-adv-x="614" 
d="M363 0h-280v667h274q84 0 134 -46t50 -124q0 -60 -34.5 -101.5t-82.5 -51.5q53 -8 91.5 -56.5t38.5 -107.5q0 -83 -51 -131.5t-140 -48.5zM350 368q62 0 96.5 34.5t34.5 88.5q0 53 -34.5 88.5t-96.5 35.5h-210v-247h210zM354 52q66 0 103 35.5t37 96.5q0 55 -37 93.5
t-103 38.5h-214v-264h214z" />
    <glyph glyph-name="afii10020" unicode="&#x413;" horiz-adv-x="542" 
d="M140 0h-57v667h423v-52h-366v-615z" />
    <glyph glyph-name="afii10021" unicode="&#x414;" horiz-adv-x="717" 
d="M35 -123v172q47 1 75.5 21t52.5 84t40 184l43 329h375v-615h59v-175h-57v123h-530v-123h-58zM261 333q-29 -225 -114 -281h416v563h-266z" />
    <glyph glyph-name="afii10022" unicode="&#x415;" horiz-adv-x="564" 
d="M506 0h-423v667h423v-52h-366v-247h359v-52h-359v-264h366v-52z" />
    <glyph glyph-name="afii10024" unicode="&#x416;" horiz-adv-x="892" 
d="M97 0h-73l311 349l-284 318h73l293 -333v333h58v-333l292 333h74l-284 -318l311 -349h-73l-275 314l-45 -50v-264h-58v264l-45 50z" />
    <glyph glyph-name="afii10025" unicode="&#x417;" horiz-adv-x="573" 
d="M274 -12q-82 0 -145.5 31.5t-96.5 79.5l39 35q30 -42 83.5 -68t119.5 -26q83 0 131.5 38t48.5 104q0 68 -50 101.5t-132 33.5h-138v52h138q74 0 122.5 32t48.5 95q0 60 -49 94.5t-121 34.5q-112 0 -192 -85l-35 36q38 45 97.5 73t132.5 28q95 0 161 -47.5t66 -128.5
q0 -47 -25 -83t-55 -51.5t-63 -21.5q54 -6 103.5 -49t49.5 -117q0 -84 -65 -137.5t-174 -53.5z" />
    <glyph glyph-name="afii10026" unicode="&#x418;" horiz-adv-x="699" 
d="M139 0h-56v667h57v-565l418 565h58v-667h-57v573z" />
    <glyph glyph-name="afii10027" unicode="&#x419;" horiz-adv-x="699" 
d="M139 0h-56v667h57v-565l418 565h58v-667h-57v573zM525 796q-65 -88 -175 -88q-109 0 -176 88l29 25q54 -75 147 -75q92 0 147 75z" />
    <glyph glyph-name="afii10028" unicode="&#x41a;" horiz-adv-x="586" 
d="M562 0h-73l-275 314l-74 -81v-233h-57v667h57v-365l322 365h73l-284 -318z" />
    <glyph glyph-name="afii10029" unicode="&#x41b;" horiz-adv-x="703" 
d="M35 -12v52q46 0 75 22.5t53 89t40 186.5l43 329h375v-667h-58v615h-266l-36 -282q-11 -88 -28 -150.5t-36 -100t-46 -59t-53.5 -28.5t-62.5 -7z" />
    <glyph glyph-name="afii10030" unicode="&#x41c;" horiz-adv-x="790" 
d="M707 0h-58v589l-243 -589h-22l-244 589v-589h-57v667h85l227 -550l226 550h86v-667z" />
    <glyph glyph-name="afii10031" unicode="&#x41d;" horiz-adv-x="703" 
d="M621 0h-58v317h-423v-317h-57v667h57v-298h423v298h58v-667z" />
    <glyph glyph-name="afii10032" unicode="&#x41e;" horiz-adv-x="764" 
d="M382 -12q-145 0 -234.5 98t-89.5 247t89.5 247t234.5 98q144 0 234 -98t90 -247t-90 -247t-234 -98zM382 40q118 0 191 82.5t73 210.5q0 129 -72.5 211t-191.5 82q-120 0 -192 -82t-72 -211q0 -128 72 -210.5t192 -82.5z" />
    <glyph glyph-name="afii10033" unicode="&#x41f;" horiz-adv-x="703" 
d="M621 0h-58v615h-423v-615h-57v667h538v-667z" />
    <glyph glyph-name="afii10034" unicode="&#x420;" horiz-adv-x="571" 
d="M140 0h-57v667h250q93 0 147 -56.5t54 -138.5t-54.5 -138.5t-146.5 -56.5h-193v-277zM327 329q66 0 106.5 40t40.5 103t-40.5 103t-106.5 40h-187v-286h187z" />
    <glyph glyph-name="afii10035" unicode="&#x421;" horiz-adv-x="672" 
d="M396 -12q-144 0 -241 96.5t-97 248.5t97 248.5t241 96.5q148 0 243 -118l-48 -31q-32 44 -84 70.5t-111 26.5q-119 0 -198.5 -82t-79.5 -211q0 -128 79.5 -210.5t198.5 -82.5q59 0 111 26.5t84 70.5l48 -30q-96 -119 -243 -119z" />
    <glyph glyph-name="afii10036" unicode="&#x422;" horiz-adv-x="564" 
d="M311 0h-58v615h-218v52h494v-52h-218v-615z" />
    <glyph glyph-name="afii10037" unicode="&#x423;" horiz-adv-x="618" 
d="M141 -12q-83 0 -126 59l31 43q40 -50 93 -50q37 0 60 21t54 79l23 43l-261 484h66l228 -431l228 431h66l-300 -554q-35 -65 -70 -95t-92 -30z" />
    <glyph glyph-name="afii10038" unicode="&#x424;" horiz-adv-x="785" 
d="M421 0h-57v65q-140 7 -223 81t-83 187q0 112 83 186.5t223 81.5v66h57v-66q140 -7 223 -81.5t83 -186.5q0 -113 -83 -187t-223 -81v-65zM118 333q0 -91 66 -150t180 -66v432q-114 -7 -180 -66t-66 -150zM666 333q0 91 -66 150t-179 66v-432q112 7 178.5 66t66.5 150z" />
    <glyph glyph-name="afii10039" unicode="&#x425;" horiz-adv-x="645" 
d="M626 0h-71l-233 301l-232 -301h-72l269 342l-254 325h73l216 -283l217 283h72l-253 -324z" />
    <glyph glyph-name="afii10040" unicode="&#x426;" horiz-adv-x="717" 
d="M623 -123v123h-540v667h57v-615h423v615h58v-615h59v-175h-57z" />
    <glyph glyph-name="afii10041" unicode="&#x427;" horiz-adv-x="595" 
d="M119 667v-171q0 -81 44.5 -124t127.5 -43q82 0 164 21v317h57v-667h-57v299q-86 -22 -168 -22q-110 0 -167.5 59.5t-57.5 159.5v171h57z" />
    <glyph glyph-name="afii10042" unicode="&#x428;" horiz-adv-x="962" 
d="M822 667h57v-667h-796v667h57v-615h312v615h58v-615h312v615z" />
    <glyph glyph-name="afii10043" unicode="&#x429;" horiz-adv-x="984" 
d="M831 667h57v-615h60v-175h-57v123h-799v667h58v-615h311v615h58v-615h312v615z" />
    <glyph glyph-name="afii10044" unicode="&#x42a;" horiz-adv-x="741" 
d="M503 0h-250v615h-218v52h276v-277h192q92 0 147 -56.5t55 -138.5t-54.5 -138.5t-147.5 -56.5zM497 338h-186v-286h186q66 0 106.5 40t40.5 103t-40.5 103t-106.5 40z" />
    <glyph glyph-name="afii10045" unicode="&#x42b;" horiz-adv-x="754" 
d="M83 667h57v-277h193q92 0 146.5 -56.5t54.5 -138.5t-54 -138.5t-147 -56.5h-250v667zM327 338h-187v-286h187q66 0 106.5 40t40.5 103t-40.5 103t-106.5 40zM671 0h-57v667h57v-667z" />
    <glyph glyph-name="afii10046" unicode="&#x42c;" horiz-adv-x="571" 
d="M83 667h57v-277h193q92 0 146.5 -56.5t54.5 -138.5t-54 -138.5t-147 -56.5h-250v667zM327 338h-187v-286h187q66 0 106.5 40t40.5 103t-40.5 103t-106.5 40z" />
    <glyph glyph-name="afii10047" unicode="&#x42d;" horiz-adv-x="672" 
d="M276 -12q-146 0 -244 119l48 30q33 -44 85 -70.5t111 -26.5q114 0 192.5 77.5t83.5 198.5h-374v52h373q-11 115 -88.5 186.5t-186.5 71.5q-59 0 -111 -26.5t-85 -70.5l-47 31q93 118 243 118q143 0 240.5 -97t97.5 -248t-97.5 -248t-240.5 -97z" />
    <glyph glyph-name="afii10048" unicode="&#x42e;" horiz-adv-x="974" 
d="M592 -12q-141 0 -230 93t-94 236h-128v-317h-57v667h57v-298h129q11 135 99 222t224 87q144 0 234 -98t90 -247t-90 -247t-234 -98zM592 40q118 0 191 82.5t73 210.5q0 129 -72.5 211t-191.5 82t-191.5 -82t-72.5 -211q0 -128 72.5 -210.5t191.5 -82.5z" />
    <glyph glyph-name="afii10049" unicode="&#x42f;" horiz-adv-x="594" 
d="M120 0h-69l193 280q-79 3 -132 54t-53 138q0 89 57.5 142t145.5 53h249v-667h-58v276h-146zM267 328h186v287h-186q-66 0 -107 -40t-41 -103t41 -103.5t107 -40.5z" />
    <glyph glyph-name="afii10065" unicode="&#x430;" horiz-adv-x="521" 
d="M440 0h-52v57q-63 -69 -164 -69q-67 0 -118 43.5t-51 117.5q0 75 50.5 117.5t118.5 42.5q102 0 164 -69v98q0 52 -37 81.5t-93 29.5q-89 0 -151 -71l-29 36q75 81 186 81q78 0 127 -39t49 -116v-340zM242 29q95 0 146 66v106q-52 67 -146 67q-59 0 -95.5 -34t-36.5 -86
t36.5 -85.5t95.5 -33.5z" />
    <glyph glyph-name="afii10066" unicode="&#x431;" horiz-adv-x="577" 
d="M285 35q82 0 129.5 61t47.5 147q0 84 -47.5 144.5t-129.5 60.5q-80 0 -128 -60.5t-48 -144.5q0 -86 47.5 -147t128.5 -61zM285 -12q-105 0 -168 76.5t-63 199.5q0 172 62.5 252.5t196.5 97.5q80 13 110 25t30 28h49q0 -24 -14.5 -41.5t-44.5 -28.5t-54 -16.5t-64 -11.5
q-79 -12 -126 -40t-65.5 -62t-30.5 -89q65 117 189 117q100 0 162.5 -72.5t62.5 -179.5q0 -109 -63.5 -182t-168.5 -73z" />
    <glyph glyph-name="afii10067" unicode="&#x432;" horiz-adv-x="541" 
d="M333 0h-252v483h248q60 0 95.5 -33.5t35.5 -90.5q0 -41 -22.5 -70.5t-54.5 -39.5q36 -10 61 -44t25 -74q0 -61 -36.5 -96t-99.5 -35zM322 47q43 0 67.5 23.5t24.5 64.5q0 37 -24.5 64t-67.5 27h-189v-179h189zM320 272q41 0 63.5 23t22.5 59q0 38 -22.5 60.5t-63.5 22.5
h-187v-165h187z" />
    <glyph glyph-name="afii10068" unicode="&#x433;" horiz-adv-x="425" 
d="M398 483v-46h-265v-437h-52v483h317z" />
    <glyph glyph-name="afii10069" unicode="&#x434;" horiz-adv-x="553" 
d="M18 -123v166q38 5 62 47t39 152l32 241h308v-436h58v-170h-52v123h-394v-123h-53zM198 437l-27 -201q-21 -151 -75 -189h311v390h-209z" />
    <glyph glyph-name="afii10070" unicode="&#x435;" horiz-adv-x="567" 
d="M295 -12q-106 0 -174 71t-68 183q0 106 66.5 179.5t166.5 73.5q106 0 167 -73.5t61 -182.5v-14h-404q4 -82 55 -137t134 -55q96 0 158 67l27 -34q-75 -78 -189 -78zM461 266q-1 70 -46.5 127t-129.5 57q-79 0 -125.5 -56.5t-49.5 -127.5h351z" />
    <glyph glyph-name="afii10072" unicode="&#x436;" horiz-adv-x="695" 
d="M89 0h-70l224 265l-225 218h70l233 -228v228h53v-229l234 229h69l-225 -218l224 -265h-70l-192 230l-40 -38v-192h-53v193l-39 37z" />
    <glyph glyph-name="afii10073" unicode="&#x437;" horiz-adv-x="519" 
d="M249 -12q-137 0 -215 80l27 34q67 -69 188 -69q72 0 116 26.5t44 71.5q0 92 -170 92h-112v44h112q69 0 115 24.5t46 70.5q0 39 -45.5 63.5t-114.5 24.5q-106 0 -167 -64l-30 32q77 77 195 77q95 0 156 -34.5t61 -94.5q0 -52 -41.5 -83t-90.5 -37q52 -4 97 -33.5t45 -84.5
q0 -62 -58 -101t-158 -39z" />
    <glyph glyph-name="afii10074" unicode="&#x438;" 
d="M131 0h-50v483h52v-402l275 402h51v-483h-52v408z" />
    <glyph glyph-name="afii10075" unicode="&#x439;" 
d="M131 0h-50v483h52v-402l275 402h51v-483h-52v408zM445 629q-65 -88 -175 -88q-109 0 -176 88l29 25q54 -75 147 -75q92 0 147 75z" />
    <glyph glyph-name="afii10076" unicode="&#x43a;" horiz-adv-x="505" 
d="M486 0h-70l-193 230l-90 -85v-145h-52v483h52v-276l285 276h69l-225 -218z" />
    <glyph glyph-name="afii10077" unicode="&#x43b;" 
d="M18 -12v45q37 0 61.5 48t39.5 161l32 241h308v-483h-52v437h-209l-27 -201q-18 -135 -54 -191.5t-99 -56.5z" />
    <glyph glyph-name="afii10078" unicode="&#x43c;" horiz-adv-x="618" 
d="M537 0h-53v412l-165 -412h-19l-167 412v-412h-52v483h70l158 -392l156 392h72v-483z" />
    <glyph glyph-name="afii10079" unicode="&#x43d;" 
d="M133 0h-52v483h52v-210h274v210h52v-483h-52v227h-274v-227z" />
    <glyph glyph-name="afii10080" unicode="&#x43e;" horiz-adv-x="571" 
d="M285 -12q-104 0 -168 73t-64 181t64 180.5t168 72.5q105 0 169 -72.5t64 -180.5t-64 -181t-169 -73zM285 35q82 0 129.5 60.5t47.5 146.5q0 85 -47.5 145.5t-129.5 60.5q-81 0 -128.5 -60.5t-47.5 -145.5t47.5 -146t128.5 -61z" />
    <glyph glyph-name="afii10081" unicode="&#x43f;" 
d="M459 0h-52v437h-274v-437h-52v483h378v-483z" />
    <glyph glyph-name="afii10082" unicode="&#x440;" horiz-adv-x="567" 
d="M301 -12q-104 0 -168 90v-262h-52v667h52v-76q27 39 71.5 63.5t96.5 24.5q97 0 156.5 -68.5t59.5 -184.5q0 -115 -59.5 -184.5t-156.5 -69.5zM292 35q79 0 124 58t45 149q0 90 -45 148t-124 58q-49 0 -93 -25t-66 -61v-239q22 -36 66.5 -62t92.5 -26z" />
    <glyph glyph-name="afii10083" unicode="&#x441;" horiz-adv-x="494" 
d="M288 -12q-105 0 -170 73t-65 181t65 180.5t170 72.5q106 0 171 -82l-36 -32q-49 67 -132 67t-132.5 -58.5t-49.5 -147.5t49.5 -148t132.5 -59q82 0 132 68l36 -32q-65 -83 -171 -83z" />
    <glyph glyph-name="afii10084" unicode="&#x442;" horiz-adv-x="391" 
d="M221 0h-52v437h-142v46h337v-46h-143v-437z" />
    <glyph glyph-name="afii10085" unicode="&#x443;" horiz-adv-x="481" 
d="M49 -189l9 48q18 -8 42 -8q49 0 73 59l38 86l-204 487h58l176 -422l174 422h59l-250 -589q-38 -90 -124 -90q-28 0 -51 7z" />
    <glyph glyph-name="afii10086" unicode="&#x444;" horiz-adv-x="772" 
d="M228 495q81 0 132 -90v262h52v-260q21 39 56.5 63.5t75.5 24.5q76 0 123 -69t47 -184t-47 -184.5t-123 -69.5q-81 0 -132 90v-262h-52v261q-21 -39 -56.5 -64t-75.5 -25q-76 0 -123 69t-47 184t47 184.5t123 69.5zM239 448q-60 0 -94 -58t-34 -149t34 -148.5t94 -57.5
q37 0 70.5 25t50.5 62v238q-17 37 -50.5 62.5t-70.5 25.5zM533 35q60 0 94 58t34 149t-34 148.5t-94 57.5q-37 0 -70.5 -25t-50.5 -61v-239q17 -37 50.5 -62.5t70.5 -25.5z" />
    <glyph glyph-name="afii10087" unicode="&#x445;" horiz-adv-x="479" 
d="M462 0h-62l-160 213l-161 -213h-62l191 248l-180 235h62l150 -199l149 199h62l-180 -235z" />
    <glyph glyph-name="afii10088" unicode="&#x446;" horiz-adv-x="553" 
d="M465 -123v123h-384v483h52v-436h274v436h52v-436h58v-170h-52z" />
    <glyph glyph-name="afii10089" unicode="&#x447;" horiz-adv-x="535" 
d="M76 483h52v-140q0 -73 31.5 -101t98.5 -28q85 0 144 33v236h52v-483h-52v204q-70 -36 -154 -36q-90 0 -131 37.5t-41 125.5v152z" />
    <glyph glyph-name="afii10090" unicode="&#x448;" horiz-adv-x="777" 
d="M644 483h52v-483h-615v483h52v-436h229v436h52v-436h230v436z" />
    <glyph glyph-name="afii10091" unicode="&#x449;" horiz-adv-x="793" 
d="M644 483h52v-436h61v-170h-52v123h-624v483h52v-436h229v436h52v-436h230v436z" />
    <glyph glyph-name="afii10092" unicode="&#x44a;" horiz-adv-x="597" 
d="M409 0h-240v437h-142v46h194v-197h188q69 0 108 -41t39 -102t-39 -102t-108 -41zM405 240h-184v-193h184q46 0 71 26.5t25 69.5q0 44 -25 70.5t-71 26.5z" />
    <glyph glyph-name="afii10093" unicode="&#x44b;" horiz-adv-x="684" 
d="M81 483h52v-197h188q69 0 108 -41t39 -102t-39 -102t-108 -41h-240v483zM317 240h-184v-193h184q46 0 71 26.5t25 69.5q0 44 -25 70.5t-71 26.5zM603 0h-53v483h53v-483z" />
    <glyph glyph-name="afii10094" unicode="&#x44c;" horiz-adv-x="509" 
d="M81 483h52v-197h188q69 0 108 -41t39 -102t-39 -102t-108 -41h-240v483zM317 240h-184v-193h184q46 0 71 26.5t25 69.5q0 44 -25 70.5t-71 26.5z" />
    <glyph glyph-name="afii10095" unicode="&#x44d;" horiz-adv-x="494" 
d="M206 -12q-106 0 -171 83l35 31q52 -69 133 -69q79 0 127.5 52.5t53.5 136.5h-261v47h261q-8 81 -56 131t-125 50q-82 0 -133 -68l-35 31q65 82 171 82q105 0 170 -72.5t65 -180.5t-65 -181t-170 -73z" />
    <glyph glyph-name="afii10096" unicode="&#x44e;" horiz-adv-x="750" 
d="M464 -12q-100 0 -163.5 68t-68.5 171h-99v-227h-52v483h52v-210h100q10 97 72.5 159.5t158.5 62.5q105 0 168.5 -72.5t63.5 -180.5q0 -109 -63.5 -181.5t-168.5 -72.5zM464 35q82 0 129.5 60.5t47.5 146.5q0 85 -47.5 145.5t-129.5 60.5q-81 0 -128.5 -60.5t-47.5 -145.5
q0 -86 47.5 -146.5t128.5 -60.5z" />
    <glyph glyph-name="afii10097" unicode="&#x44f;" horiz-adv-x="537" 
d="M128 0h-62l135 198q-59 4 -95 42.5t-36 99.5q0 62 39.5 102.5t107.5 40.5h240v-483h-53v197h-147zM221 243h183v194h-183q-46 0 -71.5 -26.5t-25.5 -70.5t25 -70.5t72 -26.5z" />
    <glyph glyph-name="afii10071" unicode="&#x451;" horiz-adv-x="567" 
d="M425 601q0 -15 -11 -26t-26 -11t-26 11t-11 26t11 26t26 11t26 -11t11 -26zM221 601q0 -15 -11 -26t-26 -11t-26 11t-11 26t11 26t26 11t26 -11t11 -26zM295 -12q-106 0 -174 71t-68 183q0 106 66.5 179.5t166.5 73.5q106 0 167 -73.5t61 -182.5v-14h-404q4 -82 55 -137
t134 -55q96 0 158 67l27 -34q-75 -78 -189 -78zM461 266q-1 70 -46.5 127t-129.5 57q-79 0 -125.5 -56.5t-49.5 -127.5h351z" />
    <glyph glyph-name="afii10099" unicode="&#x452;" horiz-adv-x="541" 
d="M296 538h-162v-128q29 34 77 59.5t97 25.5q152 0 152 -155v-402q0 -66 -34 -100t-97 -34q-56 0 -99 37l23 41q33 -33 71 -33t61 22t23 67v391q0 66 -30 92.5t-87 26.5q-45 0 -89 -24t-68 -59v-365h-52v538h-72v38h72v91h52v-91h162v-38z" />
    <glyph glyph-name="afii10100" unicode="&#x453;" horiz-adv-x="425" 
d="M401 700l-172 -144h-44l154 144h62zM398 483v-46h-265v-437h-52v483h317z" />
    <glyph glyph-name="afii10101" unicode="&#x454;" horiz-adv-x="494" 
d="M288 -12q-105 0 -170 73t-65 181t65 180.5t170 72.5q106 0 171 -82l-35 -31q-50 68 -133 68q-76 0 -124.5 -50t-56.5 -131h261v-47h-262q6 -84 55 -136.5t127 -52.5q83 0 133 69l35 -31q-65 -83 -171 -83z" />
    <glyph glyph-name="afii10102" unicode="&#x455;" horiz-adv-x="459" 
d="M225 -12q-117 0 -186 76l31 39q25 -31 66 -51t90 -20q59 0 94 27.5t35 70.5q0 36 -31.5 57.5t-76 32t-89.5 23t-76.5 41.5t-31.5 77q0 57 46.5 95.5t125.5 38.5q109 0 173 -71l-29 -37q-47 64 -144 64q-55 0 -88 -25t-33 -63q0 -33 31.5 -52t76 -29.5t89.5 -23.5
t76.5 -45t31.5 -83q0 -62 -47 -102t-134 -40z" />
    <glyph glyph-name="afii10103" unicode="&#x456;" horiz-adv-x="214" 
d="M107 559q-16 0 -28 12t-12 28t12 27.5t28 11.5q17 0 28.5 -11.5t11.5 -27.5q0 -17 -11.5 -28.5t-28.5 -11.5zM133 0h-52v483h52v-483z" />
    <glyph glyph-name="afii10104" unicode="&#x457;" horiz-adv-x="214" 
d="M246 601q0 -15 -11 -26t-26 -11t-26 11t-11 26t11 26t26 11t26 -11t11 -26zM42 601q0 -15 -11 -26t-26 -11t-26 11t-11 26t11 26t26 11t26 -11t11 -26zM133 0h-52v483h52v-483z" />
    <glyph glyph-name="afii10105" unicode="&#x458;" horiz-adv-x="214" 
d="M107 559q-16 0 -28 12t-12 28t12 27.5t28 11.5q17 0 28.5 -11.5t11.5 -27.5q0 -17 -11.5 -28.5t-28.5 -11.5zM2 -196q-56 0 -99 37l23 41q31 -33 71 -33q38 0 61 22t23 67v545h52v-545q0 -66 -34 -100t-97 -34z" />
    <glyph glyph-name="afii10106" unicode="&#x459;" horiz-adv-x="836" 
d="M18 -12v45q37 0 61.5 48t39.5 161l32 241h308v-197h188q69 0 108 -41t39 -102t-39 -102t-108 -41h-240v437h-209l-27 -201q-18 -135 -54 -191.5t-99 -56.5zM643 240h-184v-193h184q46 0 71 26.5t25 69.5q0 44 -24.5 70.5t-71.5 26.5z" />
    <glyph glyph-name="afii10107" unicode="&#x45a;" horiz-adv-x="836" 
d="M133 0h-52v483h52v-210h274v210h52v-210h196q66 0 102.5 -39.5t36.5 -97.5t-37 -97t-102 -39h-248v227h-274v-227zM650 227h-191v-180h191q43 0 66 24.5t23 64.5q0 41 -22.5 66t-66.5 25z" />
    <glyph glyph-name="afii10108" unicode="&#x45b;" horiz-adv-x="541" 
d="M296 538h-162v-128q29 34 77 59.5t97 25.5q152 0 152 -155v-340h-52v329q0 66 -30 92.5t-87 26.5q-45 0 -89 -24t-68 -59v-365h-52v538h-72v37h72v92h52v-92h162v-37z" />
    <glyph glyph-name="afii10109" unicode="&#x45c;" horiz-adv-x="505" 
d="M415 700l-172 -144h-44l154 144h62zM486 0h-70l-193 230l-90 -85v-145h-52v483h52v-276l285 276h69l-225 -218z" />
    <glyph glyph-name="afii10110" unicode="&#x45e;" horiz-adv-x="481" 
d="M49 -189l9 48q18 -8 42 -8q49 0 73 59l38 86l-204 487h58l176 -422l174 422h59l-250 -589q-38 -90 -124 -90q-28 0 -51 7zM416 629q-65 -88 -175 -88q-109 0 -176 88l29 25q54 -75 147 -75q92 0 147 75z" />
    <glyph glyph-name="afii10193" unicode="&#x45f;" 
d="M244 -126v126h-163v483h52v-436h274v436h52v-483h-163v-126h-52z" />
    <glyph glyph-name="afii10050" unicode="&#x490;" horiz-adv-x="542" 
d="M140 615v-615h-57v667h365v124h58v-176h-366z" />
    <glyph glyph-name="afii10098" unicode="&#x491;" horiz-adv-x="425" 
d="M133 437v-437h-52v483h264v126h53v-172h-265z" />
    <glyph glyph-name="afii61352" unicode="&#x2116;" horiz-adv-x="1104" 
d="M901 350q-70 0 -114 47.5t-44 117.5t44 117.5t114 47.5q71 0 115 -47t44 -118q0 -70 -44 -117.5t-115 -47.5zM901 387q53 0 84 36.5t31 91.5q0 54 -31 90.5t-84 36.5q-52 0 -82.5 -36t-30.5 -91t30.5 -91.5t82.5 -36.5zM616 0h-56l-420 573v-573h-57v667h58l418 -565v565
h57v-667z" />
    <hkern g1="afii10051,afii10058,afii10059,afii10060,afii10017,afii10044,afii10046"
	g2="afii10084,afii10092"
	k="39" />
    <hkern g1="afii10051,afii10058,afii10059,afii10060,afii10017,afii10044,afii10046"
	g2="afii10053,afii10032,afii10035,afii10038"
	k="39" />
    <hkern g1="afii10051,afii10058,afii10059,afii10060,afii10017,afii10044,afii10046"
	g2="afii10057"
	k="-5" />
    <hkern g1="afii10051,afii10058,afii10059,afii10060,afii10017,afii10044,afii10046"
	g2="afii10054,afii10025"
	k="17" />
    <hkern g1="afii10051,afii10058,afii10059,afii10060,afii10017,afii10044,afii10046"
	g2="afii10051,afii10060,afii10036,afii10041,afii10044"
	k="69" />
    <hkern g1="afii10051,afii10058,afii10059,afii10060,afii10017,afii10044,afii10046"
	g2="afii10089"
	k="19" />
    <hkern g1="afii10051,afii10058,afii10059,afii10060,afii10017,afii10044,afii10046"
	g2="afii10085,afii10110"
	k="20" />
    <hkern g1="afii10092,afii10094,afii10106,afii10107"
	g2="afii10084,afii10092"
	k="42" />
    <hkern g1="afii10092,afii10094,afii10106,afii10107"
	g2="afii10053,afii10032,afii10035,afii10038"
	k="30" />
    <hkern g1="afii10092,afii10094,afii10106,afii10107"
	g2="afii10051,afii10060,afii10036,afii10041,afii10044"
	k="100" />
    <hkern g1="afii10018,afii10019,afii10025"
	g2="afii10051,afii10060,afii10036,afii10041,afii10044"
	k="19" />
    <hkern g1="afii10018,afii10019,afii10025"
	g2="afii10069,afii10077,afii10106"
	k="10" />
    <hkern g1="afii10067,afii10073"
	g2="afii10051,afii10060,afii10036,afii10041,afii10044"
	k="68" />
    <hkern g1="afii10053,afii10035"
	g2="afii10069,afii10077,afii10106"
	k="2" />
    <hkern g1="afii10053,afii10035"
	g2="afii10058,afii10017,afii10021,afii10029"
	k="2" />
    <hkern g1="afii10032,afii10038,afii10047,afii10048"
	g2="afii10057"
	k="20" />
    <hkern g1="afii10032,afii10038,afii10047,afii10048"
	g2="afii10051,afii10060,afii10036,afii10041,afii10044"
	k="29" />
    <hkern g1="afii10032,afii10038,afii10047,afii10048"
	g2="afii10069,afii10077,afii10106"
	k="30" />
    <hkern g1="afii10032,afii10038,afii10047,afii10048"
	g2="afii10058,afii10017,afii10021,afii10029"
	k="39" />
    <hkern g1="afii10032,afii10038,afii10047,afii10048"
	g2="afii10062,afii10024,afii10037,afii10039"
	k="30" />
    <hkern g1="afii10061,afii10024,afii10028"
	g2="afii10084,afii10092"
	k="52" />
    <hkern g1="afii10061,afii10024,afii10028"
	g2="afii10053,afii10032,afii10035,afii10038"
	k="57" />
    <hkern g1="afii10061,afii10024,afii10028"
	g2="afii10089"
	k="40" />
    <hkern g1="afii10061,afii10024,afii10028"
	g2="afii10085,afii10110"
	k="60" />
    <hkern g1="afii10061,afii10024,afii10028"
	g2="afii10065"
	k="19" />
    <hkern g1="afii10061,afii10024,afii10028"
	g2="afii10066,afii10070,afii10080,afii10083,afii10086,afii10071,afii10101"
	k="37" />
    <hkern g1="afii10061,afii10024,afii10028"
	g2="afii10072,afii10087"
	k="23" />
    <hkern g1="afii10034"
	g2="afii10057"
	k="105" />
    <hkern g1="afii10034"
	g2="afii10069,afii10077,afii10106"
	k="80" />
    <hkern g1="afii10034"
	g2="afii10058,afii10017,afii10021,afii10029"
	k="79" />
    <hkern g1="afii10034"
	g2="afii10062,afii10024,afii10037,afii10039"
	k="5" />
    <hkern g1="afii10034"
	g2="afii10065"
	k="20" />
    <hkern g1="afii10034"
	g2="afii10066,afii10070,afii10080,afii10083,afii10086,afii10071,afii10101"
	k="12" />
    <hkern g1="afii10054"
	g2="afii10084,afii10092"
	k="3" />
    <hkern g1="afii10054"
	g2="afii10051,afii10060,afii10036,afii10041,afii10044"
	k="3" />
    <hkern g1="afii10054"
	g2="afii10089"
	k="2" />
    <hkern g1="afii10054"
	g2="afii10085,afii10110"
	k="3" />
    <hkern g1="afii10054"
	g2="afii10058,afii10017,afii10021,afii10029"
	k="10" />
    <hkern g1="afii10054"
	g2="afii10072,afii10087"
	k="12" />
    <hkern g1="afii10052,afii10020,afii10036,afii10050"
	g2="afii10084,afii10092"
	k="34" />
    <hkern g1="afii10052,afii10020,afii10036,afii10050"
	g2="afii10053,afii10032,afii10035,afii10038"
	k="29" />
    <hkern g1="afii10052,afii10020,afii10036,afii10050"
	g2="afii10057"
	k="82" />
    <hkern g1="afii10052,afii10020,afii10036,afii10050"
	g2="afii10054,afii10025"
	k="2" />
    <hkern g1="afii10052,afii10020,afii10036,afii10050"
	g2="afii10089"
	k="68" />
    <hkern g1="afii10052,afii10020,afii10036,afii10050"
	g2="afii10085,afii10110"
	k="68" />
    <hkern g1="afii10052,afii10020,afii10036,afii10050"
	g2="afii10069,afii10077,afii10106"
	k="100" />
    <hkern g1="afii10052,afii10020,afii10036,afii10050"
	g2="afii10058,afii10017,afii10021,afii10029"
	k="69" />
    <hkern g1="afii10052,afii10020,afii10036,afii10050"
	g2="afii10065"
	k="103" />
    <hkern g1="afii10052,afii10020,afii10036,afii10050"
	g2="afii10066,afii10070,afii10080,afii10083,afii10086,afii10071,afii10101"
	k="123" />
    <hkern g1="afii10052,afii10020,afii10036,afii10050"
	g2="afii10072,afii10087"
	k="78" />
    <hkern g1="afii10052,afii10020,afii10036,afii10050"
	g2="afii10073,afii10095,afii10102"
	k="96" />
    <hkern g1="afii10052,afii10020,afii10036,afii10050"
	g2="afii10067,afii10074,afii10076,afii10078,afii10079,afii10081,afii10082,afii10088,afii10090,afii10091,afii10093,afii10094,afii10096,afii10097,afii10100,afii10107,afii10193,afii10098"
	k="93" />
    <hkern g1="afii10068,afii10084,afii10100,afii10098"
	g2="afii10051,afii10060,afii10036,afii10041,afii10044"
	k="34" />
    <hkern g1="afii10068,afii10084,afii10100,afii10098"
	g2="afii10069,afii10077,afii10106"
	k="42" />
    <hkern g1="afii10068,afii10084,afii10100,afii10098"
	g2="afii10058,afii10017,afii10021,afii10029"
	k="39" />
    <hkern g1="afii10057"
	g2="afii10057"
	k="6" />
    <hkern g1="afii10057"
	g2="afii10069,afii10077,afii10106"
	k="5" />
    <hkern g1="afii10057"
	g2="afii10058,afii10017,afii10021,afii10029"
	k="23" />
    <hkern g1="afii10062,afii10037"
	g2="afii10084,afii10092"
	k="2" />
    <hkern g1="afii10062,afii10037"
	g2="afii10053,afii10032,afii10035,afii10038"
	k="20" />
    <hkern g1="afii10062,afii10037"
	g2="afii10057"
	k="92" />
    <hkern g1="afii10062,afii10037"
	g2="afii10089"
	k="3" />
    <hkern g1="afii10062,afii10037"
	g2="afii10085,afii10110"
	k="3" />
    <hkern g1="afii10062,afii10037"
	g2="afii10069,afii10077,afii10106"
	k="57" />
    <hkern g1="afii10062,afii10037"
	g2="afii10058,afii10017,afii10021,afii10029"
	k="57" />
    <hkern g1="afii10062,afii10037"
	g2="afii10065"
	k="62" />
    <hkern g1="afii10062,afii10037"
	g2="afii10066,afii10070,afii10080,afii10083,afii10086,afii10071,afii10101"
	k="60" />
    <hkern g1="afii10062,afii10037"
	g2="afii10072,afii10087"
	k="22" />
    <hkern g1="afii10062,afii10037"
	g2="afii10073,afii10095,afii10102"
	k="35" />
    <hkern g1="afii10062,afii10037"
	g2="afii10067,afii10074,afii10076,afii10078,afii10079,afii10081,afii10082,afii10088,afii10090,afii10091,afii10093,afii10094,afii10096,afii10097,afii10100,afii10107,afii10193,afii10098"
	k="36" />
    <hkern g1="afii10065"
	g2="afii10051,afii10060,afii10036,afii10041,afii10044"
	k="114" />
    <hkern g1="afii10080,afii10082,afii10086,afii10095,afii10096"
	g2="afii10051,afii10060,afii10036,afii10041,afii10044"
	k="123" />
    <hkern g1="afii10080,afii10082,afii10086,afii10095,afii10096"
	g2="afii10072,afii10087"
	k="39" />
    <hkern g1="afii10083,afii10101"
	g2="afii10051,afii10060,afii10036,afii10041,afii10044"
	k="86" />
    <hkern g1="afii10070,afii10071"
	g2="afii10051,afii10060,afii10036,afii10041,afii10044"
	k="106" />
    <hkern g1="afii10105"
	g2="afii10051,afii10060,afii10036,afii10041,afii10044"
	k="93" />
    <hkern g1="afii10105"
	g2="afii10105"
	k="-43" />
    <hkern g1="afii10072,afii10076,afii10109"
	g2="afii10051,afii10060,afii10036,afii10041,afii10044"
	k="80" />
    <hkern g1="afii10072,afii10076,afii10109"
	g2="afii10066,afii10070,afii10080,afii10083,afii10086,afii10071,afii10101"
	k="1" />
    <hkern g1="afii10102"
	g2="afii10051,afii10060,afii10036,afii10041,afii10044"
	k="94" />
    <hkern g1="afii10102"
	g2="afii10062,afii10024,afii10037,afii10039"
	k="2" />
    <hkern g1="afii10069,afii10074,afii10077,afii10078,afii10079,afii10081,afii10088,afii10089,afii10090,afii10091,afii10093,afii10097,afii10193"
	g2="afii10051,afii10060,afii10036,afii10041,afii10044"
	k="93" />
    <hkern g1="afii10085,afii10110"
	g2="afii10051,afii10060,afii10036,afii10041,afii10044"
	k="68" />
    <hkern g1="afii10085,afii10110"
	g2="afii10058,afii10017,afii10021,afii10029"
	k="20" />
    <hkern g1="afii10085,afii10110"
	g2="afii10062,afii10024,afii10037,afii10039"
	k="39" />
    <hkern g1="afii10039"
	g2="afii10053,afii10032,afii10035,afii10038"
	k="30" />
    <hkern g1="afii10039"
	g2="afii10089"
	k="47" />
    <hkern g1="afii10039"
	g2="afii10085,afii10110"
	k="39" />
    <hkern g1="afii10087"
	g2="afii10051,afii10060,afii10036,afii10041,afii10044"
	k="78" />
    <hkern g1="afii10087"
	g2="afii10066,afii10070,afii10080,afii10083,afii10086,afii10071,afii10101"
	k="39" />
  </font>
</defs></svg>
